\relax 
\providecommand\hyper@newdestlabel[2]{}
\providecommand\BKM@entry[2]{}
\providecommand\HyperFirstAtBeginDocument{\AtBeginDocument}
\HyperFirstAtBeginDocument{\ifx\hyper@anchor\@undefined
\global\let\oldcontentsline\contentsline
\gdef\contentsline#1#2#3#4{\oldcontentsline{#1}{#2}{#3}}
\global\let\oldnewlabel\newlabel
\gdef\newlabel#1#2{\newlabelxx{#1}#2}
\gdef\newlabelxx#1#2#3#4#5#6{\oldnewlabel{#1}{{#2}{#3}}}
\AtEndDocument{\ifx\hyper@anchor\@undefined
\let\contentsline\oldcontentsline
\let\newlabel\oldnewlabel
\fi}
\fi}
\global\let\hyper@last\relax 
\gdef\HyperFirstAtBeginDocument#1{#1}
\providecommand\HyField@AuxAddToFields[1]{}
\providecommand\HyField@AuxAddToCoFields[2]{}
\catcode `"\active 
\BKM@entry{id=1,dest={7469746C652E30},srcline={235}}{5C3337365C3337375C303030495C3030304E5C303030535C303030545C303030525C303030555C3030304B5C303030435C3030304A5C30303041}
\@writefile{toc}{\@ifundefined {etoctocstyle}{\let \etoc@startlocaltoc \@gobble \let \etoc@settocdepth \@gobble \let \etoc@depthtag \@gobble }{}}
\select@language{polish}
\@writefile{toc}{\select@language{polish}}
\@writefile{lof}{\select@language{polish}}
\@writefile{lot}{\select@language{polish}}
\select@language{english}
\@writefile{toc}{\select@language{english}}
\@writefile{lof}{\select@language{english}}
\@writefile{lot}{\select@language{english}}
\BKM@entry{id=2,dest={636F6E74656E742E30},srcline={258}}{5C3337365C3337375C3030305A5C303030415C303030575C303030415C303030525C303030545C3030304F5C3030315C3133325C3030315C303036}
\@writefile{toc}{\etoc@startlocaltoc{1}}
\newlabel{content}{{}{3}{}{section*.1}{}}
\BKM@entry{id=3,dest={73656374696F6E2A2E32},srcline={265}}{5C3337365C3337375C3030304F5C3030305C3034305C303030415C303030505C3030304C5C303030495C3030304B5C303030415C303030435C3030304A5C30303049}
\BKM@entry{id=4,dest={73656374696F6E2A2E33},srcline={29}}{5C3337365C3337375C3030304B5C3030306F5C3030306E5C303030665C303030695C303030675C303030755C303030725C303030615C303030635C3030306A5C30303061}
\BKM@entry{id=5,dest={73656374696F6E2A2E34},srcline={36}}{5C3337365C3337375C303030495C3030306E5C303030735C303030745C303030615C3030306C5C303030615C303030635C3030306A5C30303061}
\BKM@entry{id=6,dest={73656374696F6E2A2E35},srcline={44}}{5C3337365C3337375C303030415C3030306B5C303030745C303030755C303030615C3030306C5C303030695C3030307A5C303030615C303030635C3030306A5C30303061}
\@writefile{toc}{\contentsline {subsection}{\textbf  {O APLIKACJI}}{4}{section*.2}}
\@writefile{toc}{\contentsline {subsubsection}{Konfiguracja}{4}{section*.3}}
\newlabel{sec:konfiguracja}{{}{4}{Konfiguracja}{section*.3}{}}
\@writefile{toc}{\contentsline {subsubsection}{Instalacja}{4}{section*.4}}
\newlabel{sec:instalacja}{{}{4}{Instalacja}{section*.4}{}}
\@writefile{toc}{\contentsline {subsubsection}{Aktualizacja}{4}{section*.5}}
\newlabel{sec:aktualizacja}{{}{4}{Aktualizacja}{section*.5}{}}
\BKM@entry{id=7,dest={73656374696F6E2A2E36},srcline={270}}{5C3337365C3337375C3030304C5C3030304F5C303030475C3030304F5C303030575C303030415C3030304E5C303030495C30303045}
\BKM@entry{id=8,dest={73656374696F6E2A2E37},srcline={26}}{5C3337365C3337375C303030535C303030745C303030725C303030755C3030306B5C303030745C303030755C303030725C30303061}
\BKM@entry{id=9,dest={73656374696F6E2A2E38},srcline={42}}{5C3337365C3337375C3030304C5C3030306F5C303030675C3030306F5C303030775C303030615C3030306E5C303030695C30303065}
\BKM@entry{id=10,dest={73656374696F6E2A2E39},srcline={57}}{5C3337365C3337375C3030305A5C303030615C303030725C3030307A5C3030315C3030355C303030645C3030307A5C303030615C3030306E5C303030695C303030655C3030305C3034305C303030755C3030315C3137345C303030795C303030745C3030306B5C3030306F5C303030775C3030306E5C303030695C3030306B5C303030615C3030306D5C30303069}
\@writefile{toc}{\contentsline {subsection}{\textbf  {LOGOWANIE}}{5}{section*.6}}
\@writefile{lof}{\contentsline {figure}{\numberline {1}{\ignorespaces Zak\IeC {\l }adka 3M na wst\IeC {\k a}\IeC {\.z}ce}}{5}{figure.1}}
\@writefile{toc}{\contentsline {subsubsection}{Struktura}{5}{section*.7}}
\newlabel{sec:struktura}{{}{5}{Struktura}{section*.7}{}}
\@writefile{toc}{\contentsline {subsubsection}{Logowanie}{5}{section*.8}}
\newlabel{sec:logowanie}{{}{5}{Logowanie}{section*.8}{}}
\@writefile{lof}{\contentsline {figure}{\numberline {2}{\ignorespaces Struktura u\IeC {\.z}ytkownik\IeC {\'o}w}}{6}{figure.2}}
\@writefile{lof}{\contentsline {figure}{\numberline {3}{\ignorespaces Ekran logowania}}{6}{figure.3}}
\@writefile{toc}{\contentsline {subsubsection}{Zarz\IeC {\k a}dzanie u\IeC {\.z}ytkownikami}{7}{section*.9}}
\newlabel{sec:uzytkownicy}{{}{7}{Zarządzanie użytkownikami}{section*.9}{}}
\@writefile{lof}{\contentsline {figure}{\numberline {4}{\ignorespaces Formularz zarz\IeC {\k a}dzania u\IeC {\.z}ytkownikami}}{7}{figure.4}}
\BKM@entry{id=11,dest={73656374696F6E2A2E3130},srcline={275}}{5C3337365C3337375C3030305A5C303030415C303030525C3030305A5C3030315C3030345C303030445C3030305A5C303030415C3030304E5C303030495C303030455C3030305C3034305C303030455C303030545C303030595C3030304B5C303030495C303030455C303030545C303030415C3030304D5C30303049}
\BKM@entry{id=12,dest={73656374696F6E2A2E3131},srcline={25}}{5C3337365C3337375C303030505C303030725C3030307A5C303030655C303030675C3030306C5C3030315C3030355C303030645C303030615C3030306E5C303030695C30303065}
\@writefile{toc}{\contentsline {subsection}{\textbf  {ZARZ\IeC {\k A}DZANIE ETYKIETAMI}}{8}{section*.10}}
\@writefile{lof}{\contentsline {figure}{\numberline {5}{\ignorespaces Formularz zarz\IeC {\k a}dania etykietami}}{8}{figure.5}}
\@writefile{toc}{\contentsline {subsubsection}{Przegl\IeC {\k a}danie}{8}{section*.11}}
\newlabel{sec:przegladanie}{{}{8}{Przeglądanie}{section*.11}{}}
\BKM@entry{id=13,dest={73656374696F6E2A2E3132},srcline={31}}{5C3337365C3337375C303030465C303030695C3030306C5C303030745C303030725C3030306F5C303030775C303030615C3030306E5C303030695C30303065}
\BKM@entry{id=14,dest={73656374696F6E2A2E3133},srcline={41}}{5C3337365C3337375C303030445C3030306F5C303030645C303030615C303030775C303030615C3030306E5C303030695C303030655C3030305C3034305C303030695C3030305C3034305C303030655C303030645C303030795C303030635C3030306A5C303030615C3030305C3034305C303030725C303030655C3030306B5C3030306F5C303030725C303030645C3030305C3336335C30303077}
\BKM@entry{id=15,dest={73656374696F6E2A2E3134},srcline={46}}{5C3337365C3337375C3030305A5C303030615C3030306B5C303030725C303030655C303030735C3030305C3034305C303030695C3030305C3034305C3030306F5C303030705C303030635C3030306A5C303030655C3030305C3034305C303030675C303030655C3030306E5C303030655C303030725C3030306F5C303030775C303030615C3030306E5C303030695C30303061}
\@writefile{toc}{\contentsline {subsubsection}{Filtrowanie}{9}{section*.12}}
\newlabel{sec:filtrowanie}{{}{9}{Filtrowanie}{section*.12}{}}
\@writefile{toc}{\contentsline {subsubsection}{Dodawanie i edycja rekord\IeC {\'o}w}{9}{section*.13}}
\newlabel{sec:edycja_etykiet}{{}{9}{Dodawanie i edycja rekordów}{section*.13}{}}
\@writefile{toc}{\contentsline {subsubsection}{Zakres i opcje generowania}{9}{section*.14}}
\newlabel{sec:zakres_generowania}{{}{9}{Zakres i opcje generowania}{section*.14}{}}
\BKM@entry{id=16,dest={73656374696F6E2A2E3135},srcline={69}}{5C3337365C3337375C303030495C3030306D5C303030705C3030306F5C303030725C303030745C3030305C3034305C303030645C303030615C3030306E5C303030795C303030635C30303068}
\@writefile{toc}{\contentsline {subsubsection}{Import danych}{10}{section*.15}}
\newlabel{sec:import}{{}{10}{Import danych}{section*.15}{}}
\BKM@entry{id=17,dest={73656374696F6E2A2E3136},srcline={74}}{5C3337365C3337375C303030455C3030306B5C303030735C303030705C3030306F5C303030725C30303074}
\BKM@entry{id=18,dest={73656374696F6E2A2E3137},srcline={80}}{5C3337365C3337375C303030555C303030735C303030755C303030775C303030615C3030306E5C303030695C303030655C3030305C3034305C303030645C303030615C3030306E5C303030795C303030635C30303068}
\@writefile{toc}{\contentsline {subsubsection}{Eksport}{11}{section*.16}}
\newlabel{sec:eksport}{{}{11}{Eksport}{section*.16}{}}
\@writefile{toc}{\contentsline {subsubsection}{Usuwanie danych}{11}{section*.17}}
\newlabel{sec:usuwanie}{{}{11}{Usuwanie danych}{section*.17}{}}
\BKM@entry{id=19,dest={73656374696F6E2A2E3138},srcline={280}}{5C3337365C3337375C303030475C303030455C3030304E5C303030455C303030525C3030304F5C303030575C303030415C3030304E5C303030495C303030455C3030305C3034305C303030495C3030305C3034305C303030575C303030595C303030445C303030525C303030555C3030304B}
\BKM@entry{id=20,dest={73656374696F6E2A2E3139},srcline={18}}{5C3337365C3337375C303030555C3030306B5C3030315C3130325C303030615C303030645C3030305C3034305C303030775C303030795C303030645C303030725C303030755C3030306B5C30303075}
\@writefile{toc}{\contentsline {subsection}{\textbf  {GENEROWANIE I WYDRUK}}{12}{section*.18}}
\@writefile{toc}{\contentsline {subsubsection}{Uk\IeC {\l }ad wydruku}{12}{section*.19}}
\newlabel{sec:uklad}{{}{12}{Układ wydruku}{section*.19}{}}
\@writefile{lof}{\contentsline {figure}{\numberline {6}{\ignorespaces Uk\IeC {\l }ad wydruku rz\IeC {\k e}dami}}{12}{figure.6}}
\@writefile{lof}{\contentsline {figure}{\numberline {7}{\ignorespaces Uk\IeC {\l }ad wydruku poziomami}}{13}{figure.7}}
\BKM@entry{id=21,dest={73656374696F6E2A2E3230},srcline={37}}{5C3337365C3337375C3030304B5C3030306F5C3030306E5C303030665C303030695C303030675C303030755C303030725C303030615C303030635C3030306A5C303030615C3030305C3034305C303030775C303030795C303030645C303030725C303030755C3030306B5C30303075}
\BKM@entry{id=22,dest={73656374696F6E2A2E3231},srcline={47}}{5C3337365C3337375C3030304B5C3030306F5C3030306D5C303030755C3030306E5C303030695C3030306B5C303030615C303030635C3030306A5C303030615C3030305C3034305C3030307A5C3030305C3034305C303030645C303030725C303030755C3030306B5C303030615C303030725C3030306B5C3030315C303035}
\BKM@entry{id=23,dest={73656374696F6E2A2E3232},srcline={59}}{5C3337365C3337375C303030505C303030725C3030307A5C303030795C3030306B5C3030315C3130325C303030615C303030645C3030305C3034305C303030655C303030745C303030795C3030306B5C303030695C303030655C30303074}
\@writefile{toc}{\contentsline {subsubsection}{Konfiguracja wydruku}{14}{section*.20}}
\newlabel{sec:konfiguracja_wydruku}{{}{14}{Konfiguracja wydruku}{section*.20}{}}
\@writefile{toc}{\contentsline {subsubsection}{Komunikacja z drukark\IeC {\k a}}{14}{section*.21}}
\@writefile{lof}{\contentsline {figure}{\numberline {8}{\ignorespaces Konfiguracja drukarki pod wydruk etykiet}}{15}{figure.8}}
\@writefile{lof}{\contentsline {figure}{\numberline {9}{\ignorespaces Wyb\IeC {\'o}r drukarki do wydruku}}{15}{figure.9}}
\@writefile{toc}{\contentsline {subsubsection}{Przyk\IeC {\l }ad etykiet}{16}{section*.22}}
\@writefile{lof}{\contentsline {figure}{\numberline {10}{\ignorespaces Etykieta dolna/zbiorcza poziomu drugiego}}{16}{figure.10}}
\@writefile{lof}{\contentsline {figure}{\numberline {11}{\ignorespaces Etykieta g\IeC {\'o}rna}}{16}{figure.11}}
\BKM@entry{id=24,dest={73656374696F6E2A2E3233},srcline={286}}{5C3337365C3337375C303030535C303030505C303030495C303030535C3030305C3034305C303030525C303030595C303030535C303030555C3030304E5C3030304B5C3030305C3332335C30303057}
\BKM@entry{id=25,dest={666967757265732E30},srcline={287}}{5C3337365C3337375C303030535C303030505C303030495C303030535C3030305C3034305C303030525C303030595C303030535C303030555C3030304E5C3030304B5C3030305C3332335C30303057}
\@writefile{toc}{\contentsline {subsection}{\textbf  {SPIS RYSUNK\IeC {\'O}W}}{17}{section*.23}}
\newlabel{figures}{{}{17}{\listfigurename }{section*.24}{}}
